test_run_dir/Controller_should_GiveCorrectOutputs/QSUController.vcd
$date
2025-06-27T13:10+0000
$end
$version
0.2
$end
$comment

$end
$timescale 1ns  $end
$scope module QSUController $end
 $var wire 1 ! io_out_readyFlag $end
 $var wire 1 " prev $end
 $var wire 1 # io_in_valid $end
 $var wire 1 $ io_out_replaceQSV $end
 $var wire 1 % update $end
 $var wire 1 & delayUpdate $end
 $var wire 1 ' io_in_applygate $end
 $var wire 1 ( io_out_en_QGP $end
 $var wire 1 ) io_out_update_QSR $end
 $var wire 1 * clock $end
 $var wire 1 + io_in_replaceQSV $end
 $var wire 1 , en_QGP $end
 $var wire 1 - reset $end
$upscope $end
$enddefinitions $end
$dumpvars
0!
0"
0#
0$
0%
0&
0'
0(
0)
0*
0+
0,
0-
$end
#0
1!
1-
#1
1*
#6
0*
0-
#11
1*
#16
1$
1)
0*
1+
#21
1*
#26
1'
0*
#31
0!
0$
1(
0)
1*
1,
#36
0*
#41
1*
#46
0'
0*
0+
#51
1*
#56
0*
#61
1*
#66
1#
1%
0*
#71
1"
0%
1&
1)
1*
#76
0*
#81
1!
0&
0(
0)
1*
0,
