test_run_dir/XORShift_should_RNG/LinearCongruentialGenerator.vcd
$date
2025-07-08T02:30+0000
$end
$version
0.2
$end
$comment

$end
$timescale 1ns  $end
$scope module LinearCongruentialGenerator $end
 $var wire 1 ! clock $end
 $var wire 32 " io_out_Value $end
 $var wire 1 # io_in_feed $end
 $var wire 1 $ io_in_next $end
 $var wire 1 % reset $end
 $var wire 32 & value $end
 $var wire 32 ' io_in_seed $end
$upscope $end
$enddefinitions $end
$dumpvars
0!
0#
0$
b00000000000000000000000000000000 '
0%
b00000000000000000000000000000000 &
b00000000000000000000000000000000 "
$end
#0
1%
#1
1!
#6
0!
0%
b00000000000000000000000110101100 '
#11
1!
#16
0!
1#
#21
1!
b00000000000000000000000110101100 "
b00000000000000000000000110101100 &
#26
0!
0#
#31
1!
#36
0!
#41
1!
#46
0!
1$
#51
1!
b00000000000000000000000000011101 "
b00000000000000000000000000011101 &
#56
0!
0$
#61
1!
#66
0!
#71
1!
#76
0!
1$
#81
1!
b00000000000000000000000000010010 "
b00000000000000000000000000010010 &
#86
0!
0$
#91
1!
#96
0!
#101
1!
#106
0!
1$
#111
1!
b00000000000000000000000000011011 "
b00000000000000000000000000011011 &
#116
0!
0$
#121
1!
#126
0!
#131
1!
#136
0!
1$
#141
1!
b00000000000000000000000000001000 "
b00000000000000000000000000001000 &
#146
0!
0$
#151
1!
#156
0!
#161
1!
#166
0!
1$
#171
1!
b00000000000000000000000000101001 "
b00000000000000000000000000101001 &
#176
0!
0$
#181
1!
#186
0!
#191
1!
#196
0!
1$
#201
1!
b00000000000000000000000000001110 "
b00000000000000000000000000001110 &
#206
0!
0$
#211
1!
#216
0!
#221
1!
#226
0!
1$
#231
1!
b00000000000000000000000000000111 "
b00000000000000000000000000000111 &
#236
0!
0$
#241
1!
#246
0!
#251
1!
#256
0!
1$
#261
1!
b00000000000000000000000000100100 "
b00000000000000000000000000100100 &
#266
0!
0$
#271
1!
#276
0!
#281
1!
#286
0!
1$
#291
1!
b00000000000000000000000000110101 "
b00000000000000000000000000110101 &
#296
0!
0$
#301
1!
#306
0!
#311
1!
#316
0!
1$
#321
1!
b00000000000000000000000000001010 "
b00000000000000000000000000001010 &
#326
0!
0$
#331
1!
#336
0!
1$
#341
1!
b00000000000000000000000000110011 "
b00000000000000000000000000110011 &
#346
0!
#351
1!
b00000000000000000000000000000000 "
b00000000000000000000000000000000 &
#356
0!
#361
1!
b00000000000000000000000000000001 "
b00000000000000000000000000000001 &
#366
0!
#371
1!
b00000000000000000000000000000110 "
b00000000000000000000000000000110 &
#376
0!
#381
1!
b00000000000000000000000000011111 "
b00000000000000000000000000011111 &
#386
0!
#391
1!
b00000000000000000000000000011100 "
b00000000000000000000000000011100 &
#396
0!
#401
1!
b00000000000000000000000000001101 "
b00000000000000000000000000001101 &
#406
0!
#411
1!
b00000000000000000000000000000010 "
b00000000000000000000000000000010 &
#416
0!
#421
1!
b00000000000000000000000000001011 "
b00000000000000000000000000001011 &
#426
0!
#431
1!
b00000000000000000000000000111000 "
b00000000000000000000000000111000 &
