test_run_dir/RNG_should_RNG/XORshiftNumGenerator.vcd
$date
2025-07-08T02:13+0000
$end
$version
0.2
$end
$comment

$end
$timescale 1ns  $end
$scope module XORshiftNumGenerator $end
 $var wire 1 ! clock $end
 $var wire 32 " io_out_Value $end
 $var wire 1 # io_in_feed $end
 $var wire 1 $ io_in_next $end
 $var wire 1 % reset $end
 $var wire 32 & shiftReg $end
 $var wire 32 ' io_in_seed $end
 $var wire 32 ( currentValue $end
$upscope $end
$enddefinitions $end
$dumpvars
0!
0#
0$
b00000000000000000000000000000000 '
0%
b00000000000000000000000000000000 &
b00000000000000000000000000000000 (
b00000000000000000000000000000000 "
$end
#0
1%
#1
1!
#6
0!
0%
b00000000000000000000000110101100 '
#11
1!
#16
0!
1#
#21
1!
b00000000000000000000000000101100 "
b00000000000000000000000110101100 (
#26
0!
0#
#31
1!
#36
0!
#41
1!
#46
0!
1$
#51
1!
b00000000000000000011010110000000 &
#56
0!
0$
#61
1!
#66
0!
#71
1!
#76
0!
1$
#81
1!
b00000000000000000011010000101100 (
#86
0!
0$
#91
1!
#96
0!
#101
1!
#106
0!
1$
#111
1!
b00000000000001101000010110000000 &
b00000000000000000000000110101100 (
#116
0!
0$
#121
1!
#126
0!
#131
1!
#136
0!
1$
#141
1!
b00000000000000000011010110000000 &
b00000000000001101000010000101100 (
#146
0!
0$
#151
1!
#156
0!
#161
1!
#166
0!
1$
#171
1!
b00000000110100001000010110000000 &
b00000000000001101011000110101100 (
#176
0!
0$
#181
1!
#186
0!
#191
1!
#196
0!
1$
#201
1!
b00000000110101100011010110000000 &
b00000000110101100011010000101100 (
#206
0!
0$
#211
1!
#216
0!
#221
1!
#226
0!
1$
#231
1!
b00011010110001101000010110000000 &
b00000000000000000000000110101100 (
#236
0!
0$
#241
1!
#246
0!
#251
1!
#256
0!
1$
#261
1!
b00000000000000000011010110000000 &
b00011010110001101000010000101100 (
#266
0!
0$
#271
1!
#276
0!
#281
1!
#286
0!
1$
#291
1!
b01011000110100001000010110000000 &
b00011010110001101011000110101100 (
#296
0!
0$
#301
1!
#306
0!
#311
1!
#316
0!
1$
#321
1!
b01011000110101100011010110000000 &
b01000010000101100011010000101100 (
#326
0!
0$
#331
1!
#336
0!
1$
#341
1!
b01000010110001101000010110000000 &
b00011010110000000000000110101100 (
#346
0!
#351
1!
b01011000000000000011010110000000 &
b01011000000001101000010000101100 (
#356
0!
#361
1!
b00000000110100001000010110000000 &
b00000000000001101011000110101100 (
#366
0!
#371
1!
b00000000110101100011010110000000 &
b00000000110101100011010000101100 (
#376
0!
#381
1!
b00011010110001101000010110000000 &
b00000000000000000000000110101100 (
#386
0!
#391
1!
b00000000000000000011010110000000 &
b00011010110001101000010000101100 (
#396
0!
#401
1!
b01011000110100001000010110000000 &
b00011010110001101011000110101100 (
#406
0!
#411
1!
b01011000110101100011010110000000 &
b01000010000101100011010000101100 (
#416
0!
#421
1!
b01000010110001101000010110000000 &
b00011010110000000000000110101100 (
#426
0!
#431
1!
b01011000000000000011010110000000 &
b01011000000001101000010000101100 (
