test_run_dir/Sqrt_should_outputNum/FP_sqrt_16_10.vcd
$date
2025-07-11T13:47+0000
$end
$version
0.2
$end
$comment

$end
$timescale 1ns  $end
$scope module FP_sqrt_16_10 $end
 $var wire 1 ) out_sign_r_6 $end
 $var wire 1 * out_sign_r_7 $end
 $var wire 1 + out_sign_r_8 $end
 $var wire 1 , out_sign_r_2 $end
 $var wire 1 - out_sign_r_3 $end
 $var wire 1 / out_sign_r_4 $end
 $var wire 1 1 out_sign_r_5 $end
 $var wire 1 6 out_sign_r_1 $end
 $var wire 1 7 out_sign_r $end
 $var wire 4 H out_exp_r_8 $end
 $var wire 4 J out_exp_r_9 $end
 $var wire 4 K out_exp_r_6 $end
 $var wire 4 L out_exp_r_7 $end
 $var wire 4 M out_exp_r_4 $end
 $var wire 4 N out_exp_r_5 $end
 $var wire 4 O out_exp_r_2 $end
 $var wire 4 P out_exp_r_3 $end
 $var wire 4 Q out_exp_r_1 $end
 $var wire 5 V ref_exp $end
 $var wire 16 Z io_out_s $end
 $var wire 1 ] io_out_valid $end
 $var wire 1 d io_in_valid $end
 $var wire 4 l out_exp_r $end
 $var wire 1 x sign $end
 $var wire 4 y exp_new $end
 $var wire 1 } clock $end
 $var wire 12 "- frac $end
 $var wire 16 "I io_in_a $end
 $var wire 6 "N exp $end
 $var wire 13 #" ref_frac $end
 $var wire 1 #8 io_in_en $end
 $var wire 1 #O out_sign $end
 $var wire 1 #P reset $end
 $var wire 1 #f check_if_0 $end
 $var wire 5 $& out_exp $end
 $var wire 1 $M frac_sqrt $end
  $scope module frac_sqrt $end
   $var wire 5 ! results_7_hi $end
   $var wire 20 " shifted_one_3 $end
   $var wire 20 # shifted_one_2 $end
   $var wire 20 $ shifted_one_1 $end
   $var wire 2 % results_1_lo_lo $end
   $var wire 2 & results_1_hi_lo $end
   $var wire 3 ' results_8_lo_hi $end
   $var wire 3 ( results_8_hi_hi $end
   $var wire 20 . shifted_one_9 $end
   $var wire 20 0 shifted_one_8 $end
   $var wire 20 2 shifted_one_7 $end
   $var wire 20 3 shifted_one_6 $end
   $var wire 20 4 shifted_one_5 $end
   $var wire 20 5 shifted_one_4 $end
   $var wire 1 8 io_out_valid_r $end
   $var wire 1 9 io_out_valid_r_2 $end
   $var wire 1 : io_out_valid_r_1 $end
   $var wire 1 ; io_out_valid_r_4 $end
   $var wire 1 < io_out_valid_r_3 $end
   $var wire 2 = results_6_lo_lo $end
   $var wire 1 > io_out_valid_r_9 $end
   $var wire 5 ? results_6_lo $end
   $var wire 1 @ io_out_valid_r_6 $end
   $var wire 1 A io_out_valid_r_5 $end
   $var wire 3 B results_3_lo_hi $end
   $var wire 1 C io_out_valid_r_8 $end
   $var wire 12 D io_in_a $end
   $var wire 1 E io_out_valid_r_7 $end
   $var wire 3 F results_1_lo_hi $end
   $var wire 3 G results_1_hi_hi $end
   $var wire 2 I results_8_lo_lo $end
   $var wire 5 R results_4_lo $end
   $var wire 2 S results_2_hi_hi_hi $end
   $var wire 2 T results_6_hi_hi_hi $end
   $var wire 1 U io_out_valid $end
   $var wire 5 W results_5_lo $end
   $var wire 2 X results_9_lo_hi_hi $end
   $var wire 3 Y results_3_hi_hi $end
   $var wire 5 [ results_6_hi $end
   $var wire 3 \ results_0_hi_hi $end
   $var wire 5 ^ results_8_lo $end
   $var wire 1 _ t_1_6 $end
   $var wire 1 ` t_1_7 $end
   $var wire 1 a t_1_8 $end
   $var wire 1 b t_1_9 $end
   $var wire 21 c one $end
   $var wire 1 e t__1 $end
   $var wire 1 f t__2 $end
   $var wire 1 g t__0 $end
   $var wire 1 h t__5 $end
   $var wire 1 i t__6 $end
   $var wire 1 j t__3 $end
   $var wire 1 k t__4 $end
   $var wire 5 m results_9_lo $end
   $var wire 1 n t__9 $end
   $var wire 1 o t__7 $end
   $var wire 1 p t__8 $end
   $var wire 21 q shifted_ones_3 $end
   $var wire 21 r shifted_ones_4 $end
   $var wire 21 s shifted_ones_5 $end
   $var wire 21 t shifted_ones_6 $end
   $var wire 21 u shifted_ones_0 $end
   $var wire 21 v shifted_ones_1 $end
   $var wire 21 w shifted_ones_2 $end
   $var wire 2 z results_1_hi_hi_hi $end
   $var wire 5 { results_7_lo $end
   $var wire 5 | results_8_hi $end
   $var wire 2 ~ results_7_hi_hi_hi $end
   $var wire 2 "! results_7_lo_hi_hi $end
   $var wire 2 "" results_1_lo_hi_hi $end
   $var wire 21 "# shifted_ones_7 $end
   $var wire 21 "$ shifted_ones_8 $end
   $var wire 22 "% y_2 $end
   $var wire 22 "& y_1 $end
   $var wire 22 "' y_8 $end
   $var wire 22 "( y_7 $end
   $var wire 22 ") y_9 $end
   $var wire 22 "* y_4 $end
   $var wire 5 "+ results_9_hi $end
   $var wire 22 ", y_3 $end
   $var wire 22 ". y_6 $end
   $var wire 22 "/ y_5 $end
   $var wire 22 "0 X_0 $end
   $var wire 22 "1 X_1 $end
   $var wire 22 "2 X_2 $end
   $var wire 22 "3 X_3 $end
   $var wire 21 "4 shifted_ps_4 $end
   $var wire 21 "5 shifted_ps_3 $end
   $var wire 21 "6 shifted_ps_2 $end
   $var wire 21 "7 shifted_ps_1 $end
   $var wire 21 "8 shifted_ps_8 $end
   $var wire 21 "9 shifted_ps_7 $end
   $var wire 21 ": shifted_ps_6 $end
   $var wire 21 "; shifted_ps_5 $end
   $var wire 21 "< shifted_ps_0 $end
   $var wire 22 "= X_8 $end
   $var wire 22 "> X_4 $end
   $var wire 22 "? X_5 $end
   $var wire 2 "@ results_4_lo_hi_hi $end
   $var wire 22 "A X_6 $end
   $var wire 22 "B X_7 $end
   $var wire 2 "C results_7_hi_lo $end
   $var wire 1 "D t_4_3 $end
   $var wire 1 "E t_4_4 $end
   $var wire 1 "F t_4_5 $end
   $var wire 1 "G t_4_6 $end
   $var wire 1 "H t_4_7 $end
   $var wire 1 "J t_4_8 $end
   $var wire 1 "K t_4_9 $end
   $var wire 1 "L io_in_en $end
   $var wire 2 "M results_4_hi_hi_hi $end
   $var wire 2 "O results_7_lo_lo $end
   $var wire 10 "P temp_res_9 $end
   $var wire 10 "Q temp_res_7 $end
   $var wire 10 "R temp_res_8 $end
   $var wire 10 "S temp_res_5 $end
   $var wire 10 "T temp_res_6 $end
   $var wire 10 "U temp_res_3 $end
   $var wire 10 "V temp_res_4 $end
   $var wire 10 "W temp_res_1 $end
   $var wire 10 "X temp_res_2 $end
   $var wire 10 "Y temp_res_0 $end
   $var wire 2 "Z results_6_lo_hi_hi $end
   $var wire 5 "[ results_0_lo $end
   $var wire 1 "\ t_3_0 $end
   $var wire 1 "] t_3_1 $end
   $var wire 1 "^ t_3_2 $end
   $var wire 1 "_ t_3_3 $end
   $var wire 1 "` t_5_2 $end
   $var wire 1 "a t_5_3 $end
   $var wire 1 "b t_5_4 $end
   $var wire 1 "c t_5_5 $end
   $var wire 1 "d t_5_6 $end
   $var wire 3 "e results_2_lo_hi $end
   $var wire 1 "f t_5_7 $end
   $var wire 1 "g t_5_8 $end
   $var wire 1 "h t_5_9 $end
   $var wire 1 "i yleqx_4 $end
   $var wire 1 "j yleqx_3 $end
   $var wire 3 "k results_9_lo_hi $end
   $var wire 1 "l yleqx_6 $end
   $var wire 1 "m yleqx_5 $end
   $var wire 1 "n yleqx_8 $end
   $var wire 1 "o yleqx_7 $end
   $var wire 1 "p yleqx_9 $end
   $var wire 1 "q yleqx_2 $end
   $var wire 1 "r yleqx_1 $end
   $var wire 2 "s results_2_hi_lo $end
   $var wire 5 "t results_1_lo $end
   $var wire 1 "u yleqx $end
   $var wire 5 "v results_2_hi $end
   $var wire 1 "w t_4_0 $end
   $var wire 1 "x t_4_1 $end
   $var wire 1 "y t_4_2 $end
   $var wire 1 "z t_2_5 $end
   $var wire 1 "{ t_2_6 $end
   $var wire 1 "| t_2_7 $end
   $var wire 1 "} t_2_8 $end
   $var wire 1 "~ t_2_9 $end
   $var wire 2 #! results_0_hi_lo $end
   $var wire 2 ## results_2_lo_hi_hi $end
   $var wire 3 #$ results_4_hi_hi $end
   $var wire 1 #% t_1_0 $end
   $var wire 1 #& t_1_1 $end
   $var wire 1 #' t_1_2 $end
   $var wire 5 #( results_0_hi $end
   $var wire 1 #) t_1_3 $end
   $var wire 1 #* t_1_4 $end
   $var wire 1 #+ t_1_5 $end
   $var wire 1 #, t_3_4 $end
   $var wire 1 #- t_3_5 $end
   $var wire 1 #. t_3_6 $end
   $var wire 1 #/ t_3_7 $end
   $var wire 1 #0 t_3_8 $end
   $var wire 1 #1 t_3_9 $end
   $var wire 2 #2 results_9_lo_lo $end
   $var wire 1 #3 reset $end
   $var wire 3 #4 results_2_hi_hi $end
   $var wire 5 #5 results_1_hi $end
   $var wire 2 #6 results_9_hi_hi_hi $end
   $var wire 1 #7 clock $end
   $var wire 1 #9 t_2_0 $end
   $var wire 1 #: t_2_1 $end
   $var wire 1 #; t_2_2 $end
   $var wire 1 #< t_2_3 $end
   $var wire 1 #= t_2_4 $end
   $var wire 20 #> shifted_one $end
   $var wire 1 #? t_8_0 $end
   $var wire 1 #@ t_8_1 $end
   $var wire 1 #A t_8_2 $end
   $var wire 1 #B t_8_3 $end
   $var wire 1 #C t_8_4 $end
   $var wire 1 #D t_8_5 $end
   $var wire 1 #E t_8_6 $end
   $var wire 2 #F results_5_lo_hi_hi $end
   $var wire 1 #G t_8_7 $end
   $var wire 1 #H t_8_8 $end
   $var wire 1 #I t_8_9 $end
   $var wire 3 #J results_0_lo_hi $end
   $var wire 2 #K results_4_lo_lo $end
   $var wire 5 #L results_3_lo $end
   $var wire 1 #M io_in_valid $end
   $var wire 2 #N results_4_hi_lo $end
   $var wire 5 #Q results_4_hi $end
   $var wire 1 #R t_9_0 $end
   $var wire 1 #S t_9_1 $end
   $var wire 1 #T t_9_2 $end
   $var wire 2 #U results_3_hi_hi_hi $end
   $var wire 1 #V t_9_3 $end
   $var wire 1 #W t_9_4 $end
   $var wire 1 #X t_9_5 $end
   $var wire 1 #Y t_9_6 $end
   $var wire 3 #Z results_5_hi_hi $end
   $var wire 1 #[ t_9_7 $end
   $var wire 1 #\ t_9_8 $end
   $var wire 1 #] t_9_9 $end
   $var wire 2 #^ results_5_lo_lo $end
   $var wire 2 #_ results_0_hi_hi_hi $end
   $var wire 2 #` results_3_lo_hi_hi $end
   $var wire 22 #a in $end
   $var wire 2 #b results_0_lo_hi_hi $end
   $var wire 5 #c results_5_hi $end
   $var wire 10 #d io_out_s $end
   $var wire 22 #e y $end
   $var wire 21 #g shifted_sqrd_ones_9 $end
   $var wire 2 #h results_3_hi_lo $end
   $var wire 2 #i results_9_hi_lo $end
   $var wire 21 #j shifted_sqrd_ones_8 $end
   $var wire 21 #k shifted_sqrd_ones_7 $end
   $var wire 21 #l shifted_sqrd_ones_6 $end
   $var wire 21 #m shifted_sqrd_ones_5 $end
   $var wire 21 #n shifted_sqrd_ones_4 $end
   $var wire 21 #o shifted_sqrd_ones_3 $end
   $var wire 2 #p results_5_hi_hi_hi $end
   $var wire 21 #q shifted_sqrd_ones_2 $end
   $var wire 21 #r shifted_sqrd_ones_1 $end
   $var wire 21 #s shifted_sqrd_ones_0 $end
   $var wire 3 #t results_6_hi_hi $end
   $var wire 1 #u t_6_1 $end
   $var wire 2 #v results_8_lo_hi_hi $end
   $var wire 3 #w results_7_lo_hi $end
   $var wire 1 #x t_6_2 $end
   $var wire 3 #y results_7_hi_hi $end
   $var wire 1 #z t_6_3 $end
   $var wire 1 #{ t_6_4 $end
   $var wire 1 #| t_6_5 $end
   $var wire 1 #} t_6_6 $end
   $var wire 1 #~ t_6_7 $end
   $var wire 1 $! t_6_8 $end
   $var wire 1 $" t_6_9 $end
   $var wire 2 $# results_0_lo_lo $end
   $var wire 3 $$ results_4_lo_hi $end
   $var wire 5 $% results_3_hi $end
   $var wire 2 $' results_8_hi_hi_hi $end
   $var wire 10 $( results_8 $end
   $var wire 10 $) results_9 $end
   $var wire 2 $* results_8_hi_lo $end
   $var wire 10 $+ results_6 $end
   $var wire 10 $, results_7 $end
   $var wire 10 $- results_4 $end
   $var wire 10 $. results_5 $end
   $var wire 10 $/ results_2 $end
   $var wire 10 $0 results_3 $end
   $var wire 10 $1 results_0 $end
   $var wire 10 $2 results_1 $end
   $var wire 1 $3 t_5_0 $end
   $var wire 1 $4 t_5_1 $end
   $var wire 1 $5 t_7_0 $end
   $var wire 1 $6 t_7_1 $end
   $var wire 1 $7 t_7_2 $end
   $var wire 2 $8 results_2_lo_lo $end
   $var wire 1 $9 t_7_3 $end
   $var wire 1 $: t_7_4 $end
   $var wire 1 $; t_7_5 $end
   $var wire 1 $< t_7_6 $end
   $var wire 1 $= t_7_7 $end
   $var wire 1 $> t_7_8 $end
   $var wire 1 $? t_7_9 $end
   $var wire 3 $@ results_5_lo_hi $end
   $var wire 2 $A results_5_hi_lo $end
   $var wire 21 $B P_8 $end
   $var wire 21 $C P_4 $end
   $var wire 21 $D P_5 $end
   $var wire 21 $E P_6 $end
   $var wire 3 $F results_6_lo_hi $end
   $var wire 21 $G P_7 $end
   $var wire 21 $H P_0 $end
   $var wire 21 $I P_1 $end
   $var wire 21 $J P_2 $end
   $var wire 21 $K P_3 $end
   $var wire 3 $L results_9_hi_hi $end
   $var wire 2 $N results_3_lo_lo $end
   $var wire 5 $O results_2_lo $end
   $var wire 1 $P t_6_0 $end
   $var wire 2 $Q results_6_hi_lo $end
  $upscope $end
$upscope $end
$enddefinitions $end
$dumpvars
01
b00 =
06
07
08
09
0:
0;
0<
0>
0@
0A
b0000000000000000000000 #a
0C
b00 &
0E
b00 %
0U
0]
b0000000000000000000000 #e
0_
0`
b000000000000000000000 #k
0a
b000000000000000000000 #l
0b
b000000000000000000000 $J
b000000000000000000000 #j
b000000000000000000000 $K
0d
b000000000000000000000 #o
0e
0f
b000000000000000000000 #m
0g
b000000000000000000000 #n
0h
b000000000000000000000 $D
0i
b000000000000000000000 $E
b000000000000 "-
0j
b000000000000000000000 $B
0k
b000000000000000000000 $C
b000000000000000000000 #g
b000000000000000000000 $H
b000000000000000000000 $I
0n
0o
b000000000000000000000 $G
0p
b00 #v
0x
0}
b00 #i
b00 #h
b000000000000000000000 "#
b00 $N
b00 #p
b00 $Q
b000000000000000000000 "$
b000000000000000000000 ":
b000000000000000000000 ";
b000000000000000000000 "8
b000000000000000000000 "9
b00 #U
b000000000000000000000 "<
b00 $8
b00 #b
b00 #^
b000000000000000000000 "6
b000000000000000000000 "7
b00 #`
b00 $A
b000000000000000000000 "4
b00 #_
b000000000000000000000 "5
b00 $*
b00 #K
b00 #F
b00 $'
b0000000000000000 "I
b00 "s
b00 #N
b00 "Z
b00 #6
b00 $#
b00000 #(
0"D
0#%
b000000 "N
0"E
0#&
0"F
0#'
0"G
0"H
0#)
0#*
b00 #2
0"J
0#+
0"K
0#,
0"L
0#-
0#.
b00 "M
0#/
0#0
b00 "O
0#1
0#3
b00000 "+
0#7
0#8
0#9
0#:
0#;
b00 "@
b00 #!
0#<
b00 "C
0"\
0#=
b00 ##
0"]
0"^
0#?
0"_
0#@
0$!
0"`
0#A
0$"
0"a
0#B
0"b
0#C
0"c
0#D
b000 Y
0"d
0#E
0"f
0#G
0"g
0#H
0"h
0#I
0"i
0"j
0"l
0#M
0"m
b00 ~
0"n
0#O
0"o
0#P
0"p
b000 \
0"q
0#R
0$3
b000 G
0"r
0#S
0$4
b0000000000000000000000 "1
b000 F
0#T
0$5
b0000000000000000000000 "0
0$6
b0000000000000000000000 "3
0"u
0#V
0$7
b0000000000000000000000 "2
0#W
b00000 $O
b000 B
0"w
0#X
0$9
b0000000000000000000000 ",
0"x
0#Y
0$:
b0000000000000000000000 "/
0"y
0$;
b00 z
b0000000000000000000000 ".
b00 "!
0"z
0#[
0$<
b0000000000000000000000 ")
0"{
0#\
0$=
b0000000000000000000000 "(
0"|
0#]
0$>
b00 ""
0"}
0$?
b0000000000000000000000 "*
b00000 #c
0"~
b0000000000000000000000 "%
b0000000000000 #"
b0000000000000000000000 "'
b0000000000000000000000 "&
b0000000000000000000000 "A
0#f
b0000000000000000000000 "B
b0000000000000000000000 "=
b0000000000000000000000 "?
b0000000000000000000000 ">
0$M
b00000 #Q
0$P
b00000 "t
b00000 "v
b000 '
b00 X
0#u
b00000 #L
b000 (
0#x
0#z
0#{
0#|
0#}
b00000 $%
0#~
b00 T
b00000 $&
b00 S
b00 I
b00000 "[
b00000 #5
b0000000000 "Q
b0000000000 "P
b0000000000 "S
b0000000000 "R
b0000000000 "U
b0000000000 "T
b0000000000 "W
b0000000000 "V
b0000000000 "Y
b0000000000 "X
b000 #w
b00000000000000000000 0
b00000000000000000000 .
b000000000000000000000 q
b00000000000000000000 4
b000 #t
b00000000000000000000 5
b00000000000000000000 2
b00000000000000000000 3
b000000000000000000000 c
b000 #y
b00000000000000000000 $
b00000000000000000000 "
b00000000000000000000 #
b00000000000000000000 #>
b000000000000000000000 u
b000000000000000000000 t
b000000000000000000000 s
b000000000000000000000 r
b000000000000000000000 w
b000000000000000000000 v
b000 #4
b00000 !
b000 "e
b000 $$
b000 "k
b000 #J
b000 $@
b00000 ?
b000 #Z
b000 $F
b000 $L
b0000000000 $/
b0000000000 $.
b00000 R
b0000000000 $1
b0000000000 $0
b00000 W
b0000000000 $2
b00000 V
b0000 L
b00000 [
b000000000000000000000 #s
b0000 M
b0000 J
b0000000000 $)
b000000000000000000000 #q
b0000 K
b0000000000 $(
b000000000000000000000 #r
b0000 H
b0000000000 $+
b00000 ^
b0000000000 $-
b0000000000 $,
b0000 P
b0000 Q
b0000 N
b0000000000 #d
b0000 O
b00000 m
b0000 l
b00000 {
b00000 |
b000000000000 D
b000 #$
0)
0*
0+
0,
b0000 y
0-
b0000000000000000 Z
0/
$end
#0
b01111 $&
1#P
b0100000000000000000000 #a
b00000001000000000000 "
b0101000000000000000000 #e
b00000100000000000000 #
1#f
b00010000000000000000 $
b000000000000000000001 #g
b000000000000000000100 #j
b000000000000000010000 #k
b000000000000001000000 #l
b000000000000100000000 #m
b000000000010000000000 #n
b000000001000000000000 #o
b00000000000000000001 .
b000000100000000000000 #q
b000010000000000000000 #r
b00000000000000000100 0
b001000000000000000000 #s
b00000000000000010000 2
b00000000000001000000 3
b00000000000100000000 4
b00000000010000000000 5
b000000001000000000000 "#
b000000000100000000000 "$
b0000000100000000000000 "%
b100000000000 D
b0000010000000000000000 "&
b0000000000000000000100 "'
b0000000000000000010000 "(
b0000000000000000000001 ")
b0000000000010000000000 "*
b0000000001000000000000 ",
b010000000000 "-
b0000000000000001000000 ".
b0000000000000100000000 "/
b01111 V
b0100000000000 #"
b100000000000000000000 c
b110001 "N
1#3
b000010000000000000000 q
b000001000000000000000 r
b000000100000000000000 s
b000000010000000000000 t
b010000000000000000000 u
b001000000000000000000 v
b000100000000000000000 w
b0111 y
b01000000000000000000 #>
#1
1#7
1}
#6
0#3
0#7
1#8
1"L
0}
0#P
#11
1a
b0010010000000000000000 "&
b100000000000000000000 $H
b010 G
b0111 l
b0100000000000000000000 "0
1"r
b01000 #5
1#7
b01 z
b010000000000000000000 "<
1}
#16
0#f
1d
0#7
b00001 V
b0011100000000000 "I
b0000 y
b0011110000000000 Z
1#M
b111111 "N
0}
#21
b0001010100000000000000 "%
b101000000000000000000 $I
b0000 l
b0100000000 $2
b0001110000000000000000 "1
1"q
b0111 Q
b011 #4
b01 S
1#7
b01100 "v
b001010000000000000000 "7
b0100000000 "X
18
1"|
1"}
1}
#26
0#7
0}
#31
b01100 $%
b101100000000000000000 $J
b0000101101000000000000 ",
b0110000000 $/
1#/
1#0
b0111 O
b0000011100000000000000 "2
b0000 Q
b01 #U
b0110000000 "U
b000101100000000000000 "6
1#7
b011 Y
1:
1}
#36
0#7
0}
#41
b011 #$
1"F
1"H
1"i
b101100000000000000000 $K
b0000010110010000000000 "*
1"J
b01 "M
b01 #N
b0110000000 $0
b01101 #Q
b0000 O
b0111 P
b0000011100000000000000 "3
b000010110000000000000 "5
1#7
b0110000000 "V
19
1}
#46
0#7
0}
#51
b01101 #c
1"c
1"f
1"g
b0110100000 $-
b0111 M
b0000001011010100000000 "/
b01 #p
b0000 P
b0110100000 "S
b000001011010000000000 "4
1#7
b011 #Z
1<
b0000000101110000000000 ">
1}
b01 $A
b101101000000000000000 $C
#56
0#7
0}
#61
b101101000000000000000 $D
b010 $F
b0110100000 $.
1"l
b0000000101101001000000 ".
b0000 M
b01 $Q
b0111 N
b011 #t
b0110100000 "T
b01 T
1#7
1#z
b01 "Z
b000000101101000000000 ";
1#|
1;
b01101 [
1#~
1}
b0000000101110000000000 "?
1$!
b01000 ?
#66
0#7
0}
#71
b01101 !
1A
b01 "C
b101101010000000000000 $E
b0000000010110101010000 "(
b0110101000 $+
b0111 K
b0000 N
b0110101000 "Q
1#7
b010 #w
1$9
b011 #y
1$;
b000000010110101000000 ":
1$=
1$>
b01000 {
1}
b01 ~
b01 "!
b0000000000000111000000 "A
#76
0#7
0}
#81
1@
b0000000000000111000000 "B
1#D
b01 $'
b101101010000000000000 $G
1#G
b0000000001011010100100 "'
1#H
b01 $*
b010 '
b011 (
b0110101000 $,
b0000 K
b0111 L
b0110101000 "R
b01 #v
1#7
b000000001011010100000 "9
b01101 |
1}
b01000 ^
1#B
#86
0#7
0}
#91
b0110101000 $(
1E
b01 #i
b0000000000101101010001 ")
b0111 H
b011 $L
b01101 "+
b010 "k
b0000 L
b01000 m
b0110101000 "P
b01 #6
1#V
1#7
1#X
b000000000101101010000 "8
b01 X
1#[
1#\
b0000000000000111000000 "=
1}
b101101010000000000000 $B
#96
0#7
0}
#101
b0110101000 #d
b10110 $&
1C
1#7
b0110101000 $)
b0000 H
b0111 J
b0101100110101000 Z
1}
#106
0#7
0}
#111
b01111 $&
1#7
1U
b0000 J
b0011110110101000 Z
1]
1}
1>
#116
0#7
0}
#121
1#7
1}
#126
0d
0#7
0#M
0}
#131
1#7
08
1}
#136
b011111111111 D
1d
b0011011111111111 "I
1#M
b011111111111 "-
b111110 "N
0#7
b00010 V
b0001 y
0}
b0011111111110000000000 #a
b0011111111111 #"
#141
1#7
18
0:
b0001 l
1}
b0011111111110000000000 "0
#146
0#7
0}
#151
b0001 Q
1#7
09
1:
1}
b0001101111110000000000 "1
#156
0#7
0}
#161
b0000011011110000000000 "2
1#7
19
0<
1}
b0001 O
#166
0#7
0}
#171
b0001 P
b0000011011110000000000 "3
1#7
0;
1<
1}
#176
0#7
0}
#181
0A
1#7
1;
b0000000101100000000000 ">
b0001 M
1}
#186
0#7
0}
#191
0@
1A
b000 $F
1#7
0#z
b00 "Z
0"l
1}
b0000000101100000000000 "?
b0001 N
b00000 ?
#196
0#7
0}
#201
1@
b101101000000000000000 $E
0E
b0000000010110100010000 "(
b0110100000 $+
b0001 K
1"o
b0110100000 "Q
1$7
1#7
b001 #w
0$9
b000000010110100000000 ":
b00100 {
1}
b00 "!
b0000000101100000000000 "A
#206
0#7
0}
#211
b0000000010101011110000 "B
0C
b101101001000000000000 $G
1E
b0000000001011010010100 "'
b001 '
b0110100100 $,
b10 I
b0001 L
1"n
b0110100100 "R
b00 #v
1#7
b000000001011010010000 "9
1}
1#@
b00110 ^
1#A
0#B
#216
0#7
0}
#221
1C
b0110100110 $(
b0000000000101101001101 ")
b0001 H
b001 "k
b00111 m
b0110100110 "P
1"p
b11 #2
1#R
1#S
1#T
0#V
1#7
0U
b000000000101101001100 "8
b00 X
b0000000001010001011100 "=
0]
1}
0>
b101101001100000000000 $B
#226
0#7
0}
#231
b0110100111 #d
b10000 $&
1#7
1U
b0110100111 $)
b0001 J
b0100000110100111 Z
1]
1}
1>
#236
0#7
0}
#241
1#7
1}
#246
0d
0#7
0#M
0}
#251
1#7
08
1}
#256
b100000000010 D
1d
b0011100000000001 "I
1#M
b010000000001 "-
b111111 "N
0#7
b00001 V
b0000 y
0}
b0100000000100000000000 #a
b0100000000010 #"
#261
1#7
18
0:
b0000 l
1}
b0100000000100000000000 "0
#266
0#7
0}
#271
b0000 Q
1#7
09
1:
1}
b0001110000100000000000 "1
#276
0#7
0}
#281
b0000011100100000000000 "2
1#7
19
0<
1}
b0000 O
#286
0#7
0}
#291
b0000 P
b0000011100100000000000 "3
1#7
0;
1<
1}
#296
0#7
0}
#301
0A
1#7
1;
b0000000110010000000000 ">
b0000 M
1}
#306
0#7
0}
#311
0@
1A
b010 $F
1#7
1#z
b01 "Z
1"l
1}
b0000000110010000000000 "?
b0000 N
b01000 ?
#316
0#7
0}
#321
1@
b101101010000000000000 $E
0E
b0000000010110101010000 "(
b0110101000 $+
b0000 K
0"o
b0110101000 "Q
0$7
1#7
b010 #w
1$9
b000000010110101000000 ":
b01000 {
1}
b01 "!
b0000000000100111000000 "A
#326
0#7
0}
#331
b0000000000100111000000 "B
0C
b101101010000000000000 $G
1E
b0000000001011010100100 "'
b010 '
b0110101000 $,
b00 I
b0000 L
0"n
b0110101000 "R
b01 #v
1#7
b000000001011010100000 "9
1}
0#@
b01000 ^
0#A
1#B
#336
0#7
0}
#341
1C
b0110101000 $(
b0000000000101101010001 ")
b0000 H
b010 "k
b01000 m
b0110101000 "P
0"p
b00 #2
0#R
0#S
0#T
1#V
1#7
0U
b000000000101101010000 "8
b01 X
b0000000000100111000000 "=
0]
1}
0>
b101101010000000000000 $B
#346
0#7
0}
#351
b0110101000 #d
b01111 $&
1#7
1U
b0110101000 $)
b0000 J
b0011110110101000 Z
1]
1}
1>
