test_run_dir/ComparetoRand_should_Produce0or1/CompareWithRandom.vcd
$date
2025-07-08T14:21+0000
$end
$version
0.2
$end
$comment

$end
$timescale 1ns  $end
$scope module CompareWithRandom $end
 $var wire 1 ! prev $end
 $var wire 32 + RNGnumber $end
 $var wire 16 M io_in_probability $end
 $var wire 1 P toFixed0 $end
 $var wire 16 Q io_in_seed $end
 $var wire 1 R io_in_en $end
 $var wire 1 S io_in_sel $end
 $var wire 1 T multiplier0 $end
 $var wire 1 V io_out_valid $end
 $var wire 1 ] reset $end
 $var wire 1 ` io_in_valid $end
 $var wire 1 h determinedValue $end
 $var wire 1 k RNG $end
 $var wire 9 m probabilityUInt $end
 $var wire 1 o io_out_value $end
 $var wire 1 p clock $end
  $scope module multiplier0 $end
   $var wire 5 " exp_adder_outs_sr_2 $end
   $var wire 11 & whole_frac_sr_3_1 $end
   $var wire 11 ' whole_frac_sr_3_0 $end
   $var wire 5 ( out_exp $end
   $var wire 1 , exp_adder $end
   $var wire 16 . io_in_b $end
   $var wire 16 / io_in_a $end
   $var wire 1 0 io_in_valid $end
   $var wire 5 1 exp_wire_0 $end
   $var wire 5 2 exp_wire_1 $end
   $var wire 1 3 uo_check $end
   $var wire 1 6 clock $end
   $var wire 1 9 o_flag_reg $end
   $var wire 1 = io_out_valid $end
   $var wire 5 ? out_exp_innermux $end
   $var wire 16 @ in_a $end
   $var wire 16 A in_b $end
   $var wire 10 C out_frac_innermux_2 $end
   $var wire 1 E exp_adder_outc_sr $end
   $var wire 11 F whole_frac_wire_1 $end
   $var wire 11 G whole_frac_wire_0 $end
   $var wire 5 H exp_adder_outs_sr $end
   $var wire 5 N out_exp_innermux_2 $end
   $var wire 22 U frac_mult_out_sr $end
   $var wire 1 W new_sign_wire $end
   $var wire 1 X sign_wire_0 $end
   $var wire 1 Y sign_wire_1 $end
   $var wire 10 Z out_frac $end
   $var wire 1 [ multiplier $end
   $var wire 1 a new_sign_sr_3 $end
   $var wire 1 b new_sign_sr_2 $end
   $var wire 1 j carry_flag $end
   $var wire 5 l exp_sr_3_1 $end
   $var wire 1 n io_in_en $end
   $var wire 1 q exp_adder_outc_sr_2 $end
   $var wire 10 t out_frac_innermux $end
   $var wire 1 u msb_check $end
   $var wire 1 v io_out_valid_r $end
   $var wire 5 w exp_sr_4_1 $end
   $var wire 1 x io_out_valid_r_1 $end
   $var wire 1 z io_out_valid_r_2 $end
   $var wire 16 { io_out_s $end
   $var wire 10 } frac_wire_1 $end
   $var wire 10 ~ frac_wire_0 $end
   $var wire 1 "! u_flag_reg $end
    $scope module multiplier $end
     $var wire 11 ) io_in_a $end
     $var wire 11 * io_in_b $end
     $var wire 22 K io_out_s $end
     $var wire 22 d result $end
    $upscope $end
    $scope module exp_adder $end
     $var wire 5 4 io_in_a $end
     $var wire 6 5 result $end
     $var wire 1 : io_in_c $end
     $var wire 5 ; io_in_b $end
     $var wire 5 i io_out_s $end
     $var wire 1 r io_out_c $end
    $upscope $end
  $upscope $end
  $scope module toFixed0 $end
   $var wire 1 # io_out_valid $end
   $var wire 6 $ twoscomped $end
   $var wire 6 - exp_diff $end
   $var wire 1 7 sign_sr $end
   $var wire 9 8 io_out_fixed $end
   $var wire 1 > io_in_en $end
   $var wire 1 B clock $end
   $var wire 8 I result_reg $end
   $var wire 1 J io_out_valid_r_1 $end
   $var wire 5 O exp $end
   $var wire 1 ^ sign $end
   $var wire 8 _ result_wire $end
   $var wire 1 c io_out_valid_r $end
   $var wire 11 e frac $end
   $var wire 1 g io_in_valid $end
   $var wire 8 y output $end
   $var wire 16 | io_in_float $end
   $var wire 9 "" io_out_fixed_r $end
  $upscope $end
  $scope module multiplier0.multiplier $end
  $upscope $end
  $scope module RNG $end
   $var wire 32 % io_out_Value $end
   $var wire 1 < reset $end
   $var wire 1 D io_in_feed $end
   $var wire 32 L value $end
   $var wire 32 \ io_in_seed $end
   $var wire 1 f clock $end
   $var wire 1 s io_in_next $end
  $upscope $end
  $scope module multiplier0.exp_adder $end
  $upscope $end
$upscope $end
$enddefinitions $end
$dumpvars
00
b00000000000000000000000000000000 +
03
06
07
09
0:
b00000000000000000000000000000000 %
0<
b00000000 _
0=
0>
b0000000000000000 /
0B
b0000000000000000 .
0D
0E
b00000000 y
b00000000000 e
0J
0P
0R
0S
0T
b000000000 8
0V
b00000000 I
0W
0X
0Y
0[
0]
0^
0`
0a
0b
0c
0f
0g
0h
b0000000000 ~
0j
0k
0n
0o
0p
0q
0r
0s
b0000000000 }
0u
0v
b0000000000000000000000 K
0x
0z
b0000000000 t
b000000 5
b00000000000 *
b000000 -
b000000000 m
b00000000000 )
b0000000000000000000000 U
b00000000000 &
b00000000000 '
b000000 $
b0000000000 Z
b000000000 ""
b0000000000000000000000 d
0"!
b00000000000 F
b00000000000 G
b0000000000 C
b00000 "
b00000 (
b00000 1
b00000 2
b00000 4
b00000 ;
b00000 ?
b00000 H
b00000 O
b00000 N
b00000 i
b00000 l
b0000000000000000 |
b0000000000000000 {
b0000000000000000 A
b0000000000000000 @
b00000000000000000000000000000000 L
b00000 w
b0000000000000000 M
b0000000000000000 Q
0!
0#
b00000000000000000000000000000000 \
0,
$end
#0
b001111 $
b10000000000 e
b11001000000 F
b10000000000 G
b00111 i
b11001000000 *
b00000000000000000000000000000001 +
b110001 -
b0101011001000000 .
1n
b00001 1
b10101 2
1s
b00001 4
b000111 5
b00110 ;
1<
1]
b1001000000 }
1>
b00000001 _
#1
b0101011001000000 A
1B
b0110010000000000000000 d
b11001000000 &
1f
b10000000000 '
b00111 H
b10000000000 )
b0110010000000000000000 K
b10101 l
1p
16
b10101 w
#6
0p
b0000000000110010 Q
0B
06
0f
0<
b00000000000000000000000000110010 \
b0011100000000000 M
0]
b0011100000000000 /
#11
b0011100000000000 @
1B
b1001000000 C
b00000000000000000000000000000001 L
b00111 N
b00111 O
b0110010000000000000000 U
b1001000000 Z
b00111 "
b001000 $
b00000000000000000000000000000001 %
b11001000000 e
1f
b00111 (
b10100 i
b00000000000000000000000000000010 +
b111000 -
1p
b01110 1
b01110 4
b1001000000 t
b010100 5
16
b0001111001000000 {
b0001111001000000 |
b00111 ?
#16
0p
0B
06
0f
#21
1p
1B
b00000000000000000000000000000110 %
16
1f
b10100 H
b00000000000000000000000000000111 +
b00000000000000000000000000000110 L
#26
0p
0B
06
0f
#31
b10100 "
1B
b111011 $
b00000000000000000000000000011111 %
1f
b10100 (
b00000000000000000000000000100000 +
b00000000000000000000000000011111 L
b000101 -
b10100 N
b10100 O
1p
16
b0101001001000000 {
b0101001001000000 |
b10100 ?
#36
0p
0B
06
0f
#41
1p
1B
b00000000000000000000000000011100 %
16
1f
b00100000 I
b00100000 y
b00000000000000000000000000011101 +
b00000000000000000000000000011100 L
#46
0p
0B
06
0f
#51
1p
b000100000 ""
1B
b00000000000000000000000000001101 %
16
1f
b000100000 8
b00000000000000000000000000001110 +
b00000000000000000000000000001101 L
b000100000 m
#56
10
1`
0p
0B
06
0f
#61
1p
1B
b00000000000000000000000000000010 %
16
1f
1v
b00000000000000000000000000000011 +
b00000000000000000000000000000010 L
#66
0p
0B
06
0f
#71
1p
1B
b00000000000000000000000000001011 %
16
1f
1x
b00000000000000000000000000001100 +
b00000000000000000000000000001011 L
#76
0p
0B
06
0f
#81
1p
1B
b00000000000000000000000000111000 %
16
1f
1g
1z
b00000000000000000000000000111001 +
b00000000000000000000000000111000 L
1=
#86
0p
0B
06
0f
#91
1p
1B
1c
b00000000000000000000000000011001 %
16
1f
b00000000000000000000000000011010 +
b00000000000000000000000000011001 L
#96
0p
0B
06
0f
#101
1p
1B
1#
b00000000000000000000000000111110 %
16
1V
1f
1J
b00000000000000000000000000111111 +
b00000000000000000000000000111110 L
#106
0p
0B
06
0f
#111
1p
1B
b00000000000000000000000000110111 %
16
1f
b00000000000000000000000000111000 +
b00000000000000000000000000110111 L
#116
0p
0B
06
0f
#121
1p
1B
b00000000000000000000000000010100 %
16
1f
b00000000000000000000000000010101 +
b00000000000000000000000000010100 L
#126
0p
0B
06
0f
#131
1p
1B
b00000000000000000000000000100101 %
16
1f
b00000000000000000000000000100110 +
b00000000000000000000000000100101 L
#136
0p
0B
06
0f
#141
1p
1B
b00000000000000000000000000111010 %
16
1f
b00000000000000000000000000111011 +
b00000000000000000000000000111010 L
#146
0p
0B
06
0f
#151
1p
1B
b00000000000000000000000000100011 %
16
1f
b00000000000000000000000000100100 +
b00000000000000000000000000100011 L
#156
0p
0B
06
0f
#161
1p
1B
b00000000000000000000000000110000 %
16
1f
b00000000000000000000000000110001 +
b00000000000000000000000000110000 L
#166
0p
0B
06
0f
#171
1p
1B
b00000000000000000000000000110001 %
16
1f
b00000000000000000000000000110010 +
b00000000000000000000000000110001 L
#176
0p
0B
06
0f
#181
1p
1B
b00000000000000000000000000110110 %
16
1f
b00000000000000000000000000110111 +
b00000000000000000000000000110110 L
#186
0p
0B
06
0f
#191
1p
1B
b00000000000000000000000000001111 %
16
1f
b00000000000000000000000000010000 +
b00000000000000000000000000001111 L
#196
0p
0B
06
0f
#201
1p
1B
b00000000000000000000000000001100 %
16
1f
b00000000000000000000000000001101 +
b00000000000000000000000000001100 L
#206
0p
b0000000000011001 Q
0B
06
0f
b00000000000000000000000000011001 \
#211
1p
1B
b00000000000000000000000000111101 %
16
1f
b00000000000000000000000000111110 +
b00000000000000000000000000111101 L
#216
0p
0B
1R
0s
06
0f
#221
1p
1!
1B
16
1f
1h
1o
#226
0p
0B
06
0f
#231
1p
1B
16
1f
#236
0p
0B
0R
1s
1D
06
0f
#241
1p
0!
1B
0D
b00000000000000000000000000011001 %
16
1f
b00000000000000000000000000011010 +
b00000000000000000000000000011001 L
#246
0p
b0000000000110010 Q
0B
06
0f
b00000000000000000000000000110010 \
#251
1p
1B
b00000000000000000000000000111110 %
16
1f
b00000000000000000000000000111111 +
b00000000000000000000000000111110 L
#256
0p
0B
1R
0s
06
0f
#261
1p
1!
1B
16
1f
#266
0p
0B
06
0f
#271
1p
1B
16
1f
#276
0p
0B
0R
1s
1D
06
0f
#281
1p
0!
1B
0D
b00000000000000000000000000110010 %
16
1f
b00000000000000000000000000110011 +
b00000000000000000000000000110010 L
#286
0p
b0000000000100110 Q
0B
06
0f
b00000000000000000000000000100110 \
#291
1p
1B
b00000000000000000000000000111011 %
16
1f
b00000000000000000000000000111100 +
b00000000000000000000000000111011 L
#296
0p
0B
1R
0s
06
0f
#301
1p
1!
1B
16
1f
#306
0p
0B
06
0f
#311
1p
1B
16
1f
#316
0p
0B
0R
1s
1D
06
0f
#321
1p
0!
1B
0D
b00000000000000000000000000100110 %
16
1f
b00000000000000000000000000100111 +
b00000000000000000000000000100110 L
#326
0p
b0000000001000000 Q
0B
06
0f
b00000000000000000000000001000000 \
#331
1p
1B
b00000000000000000000000000111111 %
16
1f
b00000000000000000000000001000000 +
b00000000000000000000000000111111 L
#336
0p
0B
1R
0s
06
0f
#341
1p
1!
1B
16
1f
#346
0p
0B
06
0f
#351
1p
1B
16
1f
#356
0p
0B
0R
1s
1D
06
0f
#361
1p
0!
1B
0D
b00000000000000000000000001000000 %
16
1f
b00000000000000000000000001000001 +
b00000000000000000000000001000000 L
#366
0p
b0000000000111110 Q
0B
06
0f
b00000000000000000000000000111110 \
#371
1p
1B
b00000000000000000000000000000001 %
16
1f
b00000000000000000000000000000010 +
b00000000000000000000000000000001 L
#376
0p
0B
1R
0s
06
0f
#381
1p
1!
1B
16
1f
0h
0o
#386
0p
0B
06
0f
#391
1p
1B
16
1f
#396
0p
0B
0R
1s
1D
06
0f
#401
1p
0!
1B
0D
b00000000000000000000000000111110 %
16
1f
b00000000000000000000000000111111 +
b00000000000000000000000000111110 L
